<?xml version='1.0' encoding='UTF-8'?>
<glyph name="ntilde" format="2">
  <advance width="880"/>
  <unicode hex="00F1"/>
  <outline>
    <component base="n.acc"/>
    <component base="tilde"/>
    <component base="n"/>
  </outline>
</glyph>
