<?xml version='1.0' encoding='UTF-8'?>
<glyph name="uni03A9" format="2">
  <advance width="930"/>
  <unicode hex="03A9"/>
  <outline>
    <component base="Omega"/>
  </outline>
  <lib>
    <dict>
      <key>public.markColor</key>
      <string>0.4809,1,0.7016,0.3019</string>
    </dict>
  </lib>
</glyph>
