<?xml version='1.0' encoding='UTF-8'?>
<glyph name="three" format="2">
  <advance width="830"/>
  <outline>
    <contour>
      <point x="694" y="727" type="line"/>
      <point x="125" y="349" type="line" smooth="yes"/>
      <point x="113" y="370" type="line"/>
      <point x="645" y="728" type="line"/>
    </contour>
    <contour>
      <point x="560" y="239" type="curve" smooth="yes"/>
      <point x="560" y="422"/>
      <point x="531" y="475"/>
      <point x="430" y="475" type="curve" smooth="yes"/>
      <point x="336" y="475"/>
      <point x="285" y="461"/>
      <point x="180" y="386" type="curve"/>
      <point x="170" y="403" type="line"/>
      <point x="249" y="468"/>
      <point x="344" y="500"/>
      <point x="433" y="501" type="curve" smooth="yes"/>
      <point x="582" y="503"/>
      <point x="700" y="410"/>
      <point x="700" y="255" type="curve" smooth="yes"/>
      <point x="700" y="77"/>
      <point x="576" y="-20"/>
      <point x="373" y="-20" type="curve" smooth="yes"/>
      <point x="113" y="-20"/>
      <point x="32" y="86"/>
      <point x="32" y="264" type="curve"/>
      <point x="59" y="264" type="line"/>
      <point x="59" y="113"/>
      <point x="116" y="8"/>
      <point x="354" y="8" type="curve" smooth="yes"/>
      <point x="493" y="8"/>
      <point x="560" y="86"/>
    </contour>
    <contour>
      <point x="44" y="412" type="line"/>
      <point x="44" y="750" type="line"/>
      <point x="694" y="750" type="line"/>
      <point x="694" y="727" type="line"/>
      <point x="536" y="633" type="line" smooth="yes"/>
      <point x="133" y="633" type="line" smooth="yes"/>
      <point x="89" y="633"/>
      <point x="69" y="612"/>
      <point x="69" y="557" type="curve" smooth="yes"/>
      <point x="69" y="412" type="line"/>
    </contour>
  </outline>
  <lib>
    <dict>
      <key>com.typemytype.robofont.layerData</key>
      <dict>
        <key>background</key>
        <dict>
          <key>anchors</key>
          <array/>
          <key>components</key>
          <array/>
          <key>contours</key>
          <array/>
          <key>lib</key>
          <dict/>
          <key>name</key>
          <string>three</string>
          <key>unicodes</key>
          <array/>
          <key>width</key>
          <integer>752</integer>
        </dict>
      </dict>
    </dict>
  </lib>
</glyph>
