<?xml version='1.0' encoding='UTF-8'?>
<glyph name="y" format="2">
  <advance width="811"/>
  <outline>
    <contour>
      <point x="636" y="739" type="line"/>
      <point x="636" y="246" type="line" smooth="yes"/>
      <point x="636" y="67"/>
      <point x="541" y="-20"/>
      <point x="336" y="-20" type="curve" smooth="yes"/>
      <point x="152" y="-20"/>
      <point x="50" y="37"/>
      <point x="50" y="169" type="curve" smooth="yes"/>
      <point x="50" y="323"/>
      <point x="192" y="343"/>
      <point x="313" y="409" type="curve"/>
      <point x="330" y="389" type="line"/>
      <point x="207" y="327"/>
      <point x="77" y="306"/>
      <point x="77" y="169" type="curve" smooth="yes"/>
      <point x="77" y="55"/>
      <point x="168" y="7"/>
      <point x="334" y="7" type="curve" smooth="yes"/>
      <point x="525" y="7"/>
      <point x="609" y="75"/>
      <point x="609" y="246" type="curve" smooth="yes"/>
      <point x="609" y="739" type="line"/>
    </contour>
    <contour>
      <point x="750" y="750" type="line"/>
      <point x="750" y="725" type="line"/>
      <point x="436" y="725" type="line"/>
      <point x="436" y="750" type="line"/>
    </contour>
    <contour>
      <point x="34" y="750" type="line"/>
      <point x="201" y="750" type="line"/>
      <point x="617" y="210" type="line"/>
      <point x="577" y="81" type="line"/>
    </contour>
    <contour>
      <point x="526" y="725" type="line"/>
      <point x="-30" y="725" type="line"/>
      <point x="-30" y="750" type="line"/>
      <point x="526" y="750" type="line"/>
    </contour>
    <contour>
      <point x="1636" y="-321" type="line"/>
    </contour>
  </outline>
</glyph>
